simulation/qsim/i2s_interface.msim.vcd
$comment
	File created using the following command:
		vcd file i2s_interface.msim.vcd -direction
$end
$date
	Sat Mar 21 23:16:57 2020
$end
$version
	ModelSim Version 10.3d
$end
$timescale
	1ps
$end

$scope module i2s_interface_vlg_vec_tst $end
$var reg 1 ! clk $end
$var reg 1 " data $end
$var reg 1 # reset $end
$var wire 1 $ lrcl $end
$var wire 1 % mems_bclk $end
$var wire 1 & sampler $end

$scope module i1 $end
$var wire 1 ' gnd $end
$var wire 1 ( vcc $end
$var wire 1 ) unknown $end
$var tri1 1 * devclrn $end
$var tri1 1 + devpor $end
$var tri1 1 , devoe $end
$var wire 1 - data~input_o $end
$var wire 1 . reset~input_o $end
$var wire 1 / clk~input_o $end
$var wire 1 0 bclkPll|altpll_component|auto_generated|wire_pll1_fbout $end
$var wire 1 1 ws_cnt[0]~2_combout $end
$var wire 1 2 ws_cnt~1_combout $end
$var wire 1 3 ws_cnt~0_combout $end
$var wire 1 4 ws_toggle~0_combout $end
$var wire 1 5 ws_toggle~q $end
$var wire 1 6 bclkPll|altpll_component|auto_generated|wire_pll1_clk [4] $end
$var wire 1 7 bclkPll|altpll_component|auto_generated|wire_pll1_clk [3] $end
$var wire 1 8 bclkPll|altpll_component|auto_generated|wire_pll1_clk [2] $end
$var wire 1 9 bclkPll|altpll_component|auto_generated|wire_pll1_clk [1] $end
$var wire 1 : bclkPll|altpll_component|auto_generated|wire_pll1_clk [0] $end
$var wire 1 ; ws_cnt [2] $end
$var wire 1 < ws_cnt [1] $end
$var wire 1 = ws_cnt [0] $end
$var wire 1 > bclkPll|altpll_component|auto_generated|pll1_CLK_bus [4] $end
$var wire 1 ? bclkPll|altpll_component|auto_generated|pll1_CLK_bus [3] $end
$var wire 1 @ bclkPll|altpll_component|auto_generated|pll1_CLK_bus [2] $end
$var wire 1 A bclkPll|altpll_component|auto_generated|pll1_CLK_bus [1] $end
$var wire 1 B bclkPll|altpll_component|auto_generated|pll1_CLK_bus [0] $end
$upscope $end
$upscope $end
$enddefinitions $end
#0
$dumpvars
0!
0"
0#
0$
x%
x&
0'
1(
x)
1*
1+
1,
0-
0.
0/
x0
11
02
03
04
05
x:
x9
x8
x7
x6
0=
0<
0;
xB
xA
x@
x?
x>
$end
#833
10
#10000
1!
0&
1/
#10833
00
#20000
0!
1&
0/
1=
13
01
#20833
10
#30000
1!
0&
1/
#30833
00
#40000
0!
1&
0/
0=
1<
11
#40833
10
#50000
1!
0&
1/
#50833
00
#60000
0!
1&
0/
1=
03
12
01
#60833
10
#70000
1!
0&
1/
#75416
00
#80000
0!
1&
0/
0=
1;
0<
11
#90000
1!
0&
1/
10
0>
0?
0@
0A
1B
09
08
07
06
1:
1%
#100000
0!
1&
0/
1=
14
02
01
00
#110000
1!
0&
1/
10
#120000
0!
1&
0/
0=
0;
15
1$
11
00
#130000
1!
0&
1/
10
#140000
0!
1&
0/
1=
13
01
00
#150000
1!
0&
1/
10
#160000
0!
1&
0/
0=
1<
11
00
#170000
1!
0&
1/
10
#180000
0!
1&
0/
1=
03
12
01
00
#190000
1!
0&
1/
10
#200000
0!
1&
0/
0=
1;
0<
11
00
#210000
1!
0&
1/
10
#220000
0!
1&
0/
1=
04
02
01
00
#230000
1!
0&
1/
10
#240000
0!
1&
0/
0=
0;
05
0$
11
00
#250000
1!
0&
1/
10
#260000
0!
1&
0/
1=
13
01
0B
0:
00
0%
#270000
1!
0&
1/
10
#280000
0!
1&
0/
0=
1<
11
00
#290000
1!
0&
1/
10
#300000
0!
1&
0/
1=
03
12
01
00
#310000
1!
0&
1/
10
#320000
0!
1&
0/
0=
1;
0<
11
00
#330000
1!
0&
1/
10
#340000
0!
1&
0/
1=
14
02
01
00
#350000
1!
0&
1/
10
#360000
0!
1&
0/
0=
0;
15
1$
11
00
#370000
1!
0&
1/
10
#380000
0!
1&
0/
1=
13
01
00
#390000
1!
0&
1/
10
#400000
0!
1&
0/
0=
1<
11
00
#410000
1!
0&
1/
10
#420000
0!
1&
0/
1=
03
12
01
00
#430000
1!
0&
1/
10
#440000
0!
1&
0/
0=
1;
0<
11
00
#450000
1!
0&
1/
10
#460000
0!
1&
0/
1=
04
02
01
00
#470000
1!
0&
1/
10
#480000
0!
1&
0/
0=
0;
05
0$
11
00
#490000
1!
0&
1/
10
#500000
0!
1&
0/
1=
13
01
00
#510000
1!
0&
1/
1B
1:
10
1%
#520000
0!
1&
0/
0=
1<
11
00
#530000
1!
0&
1/
10
#540000
0!
1&
0/
1=
03
12
01
00
#550000
1!
0&
1/
10
#560000
0!
1&
0/
0=
1;
0<
11
00
#570000
1!
0&
1/
10
#580000
0!
1&
0/
1=
14
02
01
00
#590000
1!
0&
1/
10
#600000
0!
1&
0/
0=
0;
15
1$
11
00
#610000
1!
0&
1/
10
#620000
0!
1&
0/
1=
13
01
00
#630000
1!
0&
1/
10
#640000
0!
1&
0/
0=
1<
11
00
#650000
1!
0&
1/
10
#660000
0!
1&
0/
1=
03
12
01
00
#670000
1!
0&
1/
10
#680000
0!
1&
0/
0=
1;
0<
11
00
#690000
1!
0&
1/
10
#700000
0!
1&
0/
1=
04
02
01
00
#710000
1!
0&
1/
10
#720000
0!
1&
0/
0=
0;
05
0$
11
00
#730000
1!
0&
1/
10
#740000
0!
1&
0/
1=
13
01
00
#750000
1!
0&
1/
10
#760000
0!
1&
0/
0=
1<
11
0B
0:
00
0%
#770000
1!
0&
1/
10
#780000
0!
1&
0/
1=
03
12
01
00
#790000
1!
0&
1/
10
#800000
0!
1&
0/
0=
1;
0<
11
00
#810000
1!
0&
1/
10
#820000
0!
1&
0/
1=
14
02
01
00
#830000
1!
0&
1/
10
#840000
0!
1&
0/
0=
0;
15
1$
11
00
#850000
1!
0&
1/
10
#860000
0!
1&
0/
1=
13
01
00
#870000
1!
0&
1/
10
#880000
0!
1&
0/
0=
1<
11
00
#890000
1!
0&
1/
10
#900000
0!
1&
0/
1=
03
12
01
00
#910000
1!
0&
1/
10
#920000
0!
1&
0/
0=
1;
0<
11
00
#930000
1!
0&
1/
10
#940000
0!
1&
0/
1=
04
02
01
00
#950000
1!
0&
1/
10
#960000
0!
1&
0/
0=
0;
05
0$
11
00
#970000
1!
0&
1/
10
#980000
0!
1&
0/
1=
13
01
00
#990000
1!
0&
1/
10
